…
``` r
zip_zori = read_csv("data/zillow_data/Zip_zori_uc_sfrcondomfr_sm_month_NYC.csv", show_col_types = FALSE, na = c(".", "NA", "")) %>%
  janitor::clean_names() %>% 
  rename("zip_code" = "region_name")

zip_codes = read_csv("data/zillow_data/Zip Codes.csv", show_col_types = FALSE, na = c(".", "NA", "")) %>%
  janitor::clean_names() %>% 
  filter(!(county == "New York" & zip_code %in% c(10463, 11202)))

missing_zips = anti_join(zip_codes, zip_zori, by = "zip_code")
missing_zips
```

    ## # A tibble: 171 × 7
    ##    county state_fips county_code county_fips zip_code file_date neighborhood    
    ##    <chr>       <dbl> <chr>             <dbl>    <dbl> <chr>     <chr>           
    ##  1 Bronx          36 005               36005    10464 7/25/07   Southeast Bronx 
    ##  2 Bronx          36 005               36005    10474 7/25/07   Hunts Point and…
    ##  3 Bronx          36 005               36005    10475 7/25/07   Northeast Bronx 
    ##  4 Bronx          36 005               36005    10499 7/25/07   <NA>            
    ##  5 Bronx          36 005               36005    10550 7/25/07   <NA>            
    ##  6 Bronx          36 005               36005    10704 7/25/07   <NA>            
    ##  7 Bronx          36 005               36005    10705 7/25/07   <NA>            
    ##  8 Bronx          36 005               36005    10803 7/25/07   <NA>            
    ##  9 Kings          36 047               36047    11202 7/25/07   <NA>            
    ## 10 Kings          36 047               36047    11224 7/25/07   Southern Brookl…
    ## # ℹ 161 more rows
…
